Week 4 - R, Tidyverse, Delimited Data, Excel, Manipulating
…
4. What are the two main differences between a tibble and a data.frame?

Tibbles are data frames but a modified version that is used in tidyverse. The two main differences between a tibble and a data.frame in regards to their usage are: printing and subsetting. For printing, tibbles only showcases the first 10 rows, and all of the columns that fit on the screen. For subsetting, tibbles is much more strict and adheres to the following: [ always returns a tibble by default, partial matching of columns with $ and [[ is not supported, only scalars or vectors with the same length as the number of rows can be used for assignment, rows outside of tibbles boundaries cannot be accessed, and when updating [[<- and [,-, type changes of entire columns are supported, but updating a part of a column requires that the new value is coercible to the existing type. *Note: tibble() does much less than data.frame(): it doesn’t change the type of inputs, it doesn’t change the names of variables, and it never creates row names (R for Data Science & Tidyverse).

5. Rewrite the following nested function call using BaseR’s chaining operator:

arrange(filter(select(as_tibble(iris), starts_with(“Petal”), Species), Petal.Length < 1.55), Species)

#installed tidyverse package in console

library(tidyverse) #loaded in tidyverse to use

arrange(filter(select(as_tibble(iris), starts_with("Petal"), Species), Petal.Length < 1.55), Species) #using this to see what it outputs

# A tibble: 37 × 3
   Petal.Length Petal.Width Species
          <dbl>       <dbl> <fct>  
 1          1.4         0.2 setosa 
 2          1.4         0.2 setosa 
 3          1.3         0.2 setosa 
 4          1.5         0.2 setosa 
 5          1.4         0.2 setosa 
 6          1.4         0.3 setosa 
 7          1.5         0.2 setosa 
 8          1.4         0.2 setosa 
 9          1.5         0.1 setosa 
10          1.5         0.2 setosa 
# ℹ 27 more rows

iris <- data.frame(iris)

iris |>
  as.tibble() |>
  select(starts_with("Petal"), Species) |>
  filter(Petal.Length < 1.55) |>
  arrange(Species)

# A tibble: 37 × 3
   Petal.Length Petal.Width Species
          <dbl>       <dbl> <fct>  
 1          1.4         0.2 setosa 
 2          1.4         0.2 setosa 
 3          1.3         0.2 setosa 
 4          1.5         0.2 setosa 
 5          1.4         0.2 setosa 
 6          1.4         0.3 setosa 
 7          1.5         0.2 setosa 
 8          1.4         0.2 setosa 
 9          1.5         0.1 setosa 
10          1.5         0.2 setosa 
# ℹ 27 more rows

Task 2: Reading Delimited Data

Glass Data

1. Read data into R using a URL, renaming column names, and printing out the tibble.

glassdata <- read_csv("https://www4.stat.ncsu.edu/online/datasets/glass.data", col_names = FALSE) #read in data from URL

colnames(glassdata) <- c("Id", "RI", "Na", "Mg", "Al", "Si", "K", "Ca", "Ba", "Fe", "Type_of_glass") #renamed column names
glassdata #printed out column names

# A tibble: 214 × 11
      Id    RI    Na    Mg    Al    Si     K    Ca    Ba    Fe Type_of_glass
   <dbl> <dbl> <dbl> <dbl> <dbl> <dbl> <dbl> <dbl> <dbl> <dbl>         <dbl>
 1     1  1.52  13.6  4.49  1.1   71.8  0.06  8.75     0  0                1
 2     2  1.52  13.9  3.6   1.36  72.7  0.48  7.83     0  0                1
 3     3  1.52  13.5  3.55  1.54  73.0  0.39  7.78     0  0                1
 4     4  1.52  13.2  3.69  1.29  72.6  0.57  8.22     0  0                1
 5     5  1.52  13.3  3.62  1.24  73.1  0.55  8.07     0  0                1
 6     6  1.52  12.8  3.61  1.62  73.0  0.64  8.07     0  0.26             1
 7     7  1.52  13.3  3.6   1.14  73.1  0.58  8.17     0  0                1
 8     8  1.52  13.2  3.61  1.05  73.2  0.57  8.24     0  0                1
 9     9  1.52  14.0  3.58  1.37  72.1  0.56  8.3      0  0                1
10    10  1.52  13    3.6   1.36  73.0  0.57  8.4      0  0.11             1
# ℹ 204 more rows
…
library(dplyr)

glassdata <- glassdata |>
  mutate(
    Type_of_glass = ifelse(Type_of_glass == 1, "building_windows_float_processed",
                    ifelse(Type_of_glass == 2, "building_windows_non_float_processed",
                    ifelse(Type_of_glass == 3, "vehicle_windows_float_processed",
                    ifelse(Type_of_glass == 5, "containers",
                    ifelse(Type_of_glass == 6, "tableware",
                    ifelse(Type_of_glass == 7, "headlamps", "Error")
))))))
glassdata

# A tibble: 214 × 11
      Id    RI    Na    Mg    Al    Si     K    Ca    Ba    Fe Type_of_glass    
   <dbl> <dbl> <dbl> <dbl> <dbl> <dbl> <dbl> <dbl> <dbl> <dbl> <chr>            
 1     1  1.52  13.6  4.49  1.1   71.8  0.06  8.75     0  0    building_windows…
 2     2  1.52  13.9  3.6   1.36  72.7  0.48  7.83     0  0    building_windows…
 3     3  1.52  13.5  3.55  1.54  73.0  0.39  7.78     0  0    building_windows…
 4     4  1.52  13.2  3.69  1.29  72.6  0.57  8.22     0  0    building_windows…
 5     5  1.52  13.3  3.62  1.24  73.1  0.55  8.07     0  0    building_windows…
 6     6  1.52  12.8  3.61  1.62  73.0  0.64  8.07     0  0.26 building_windows…
 7     7  1.52  13.3  3.6   1.14  73.1  0.58  8.17     0  0    building_windows…
 8     8  1.52  13.2  3.61  1.05  73.2  0.57  8.24     0  0    building_windows…
 9     9  1.52  14.0  3.58  1.37  72.1  0.56  8.3      0  0    building_windows…
10    10  1.52  13    3.6   1.36  73.0  0.57  8.4      0  0.11 building_windows…
# ℹ 204 more rows

3. Continued chain, keeping only observations where Fe = less than 0.2 and the Type of Glass is either “tableware” or “headlamps”.

glassdata <- glassdata |>
  filter(Fe < 0.2 & Type_of_glass == "tableware" | Type_of_glass == "headlamps")
glassdata

# A tibble: 38 × 11
      Id    RI    Na    Mg    Al    Si     K    Ca    Ba    Fe Type_of_glass
   <dbl> <dbl> <dbl> <dbl> <dbl> <dbl> <dbl> <dbl> <dbl> <dbl> <chr>        
 1   177  1.52  14    2.39  1.56  72.4  0     9.57  0        0 tableware    
 2   178  1.52  13.8  2.41  1.19  72.8  0     9.77  0        0 tableware    
 3   179  1.52  14.5  2.24  1.62  72.4  0     9.26  0        0 tableware    
 4   180  1.52  14.1  2.19  1.66  72.7  0     9.32  0        0 tableware    
 5   181  1.51  14.4  1.74  1.54  74.6  0     7.59  0        0 tableware    
 6   182  1.52  15.0  0.78  1.74  72.5  0     9.95  0        0 tableware    
 7   183  1.52  14.2  0     2.09  72.7  0    10.9   0        0 tableware    
 8   184  1.52  14.6  0     0.56  73.5  0    11.2   0        0 tableware    
 9   185  1.51  17.4  0     0.34  75.4  0     6.65  0        0 tableware    
10   186  1.51  13.7  3.2   1.81  72.8  1.76  5.43  1.19     0 headlamps    
# ℹ 28 more rows

Yeast Data

1. Read Yeast data into R using URL and add column names.

yeastdata <- read_table("https://www4.stat.ncsu.edu/~online/datasets/yeast.data", col_names = FALSE) #read in data from URL

colnames(yeastdata) <- c("seq_name", "mcg", "gvh", "alm", "mit", "erl", "pox", "vac", "nuc", "class") #renamed column names
yeastdata #printed out column names

# A tibble: 1,484 × 10
   seq_name     mcg   gvh   alm   mit   erl   pox   vac   nuc class
   <chr>      <dbl> <dbl> <dbl> <dbl> <dbl> <dbl> <dbl> <dbl> <chr>
 1 ADT1_YEAST  0.58  0.61  0.47  0.13   0.5   0    0.48  0.22 MIT  
 2 ADT2_YEAST  0.43  0.67  0.48  0.27   0.5   0    0.53  0.22 MIT  
 3 ADT3_YEAST  0.64  0.62  0.49  0.15   0.5   0    0.53  0.22 MIT  
 4 AAR2_YEAST  0.58  0.44  0.57  0.13   0.5   0    0.54  0.22 NUC  
 5 AATM_YEAST  0.42  0.44  0.48  0.54   0.5   0    0.48  0.22 MIT  
 6 AATC_YEAST  0.51  0.4   0.56  0.17   0.5   0.5  0.49  0.22 CYT  
 7 ABC1_YEAST  0.5   0.54  0.48  0.65   0.5   0    0.53  0.22 MIT  
 8 BAF1_YEAST  0.48  0.45  0.59  0.2    0.5   0    0.58  0.34 NUC  
 9 ABF2_YEAST  0.55  0.5   0.66  0.36   0.5   0    0.49  0.22 MIT  
10 ABP1_YEAST  0.4   0.39  0.6   0.15   0.5   0    0.58  0.3  CYT  
# ℹ 1,474 more rows

2 /3 Start a chain that removes the seq_name and nuc columns. Continue chain to add columns corresponding to mean and median of each numeric variable

yeastdata <- yeastdata |>
  select(-seq_name, -nuc) |>
  group_by(class) |>
  mutate(across(where(is.numeric), list(mean = mean, median = median), .names = "{.col}_{.fn}"))
yeastdata

# A tibble: 1,484 × 22
# Groups:   class [10]
     mcg   gvh   alm   mit   erl   pox   vac class mcg_mean mcg_median gvh_mean
   <dbl> <dbl> <dbl> <dbl> <dbl> <dbl> <dbl> <chr>    <dbl>      <dbl>    <dbl>
 1  0.58  0.61  0.47  0.13   0.5   0    0.48 MIT      0.521       0.51    0.533
 2  0.43  0.67  0.48  0.27   0.5   0    0.53 MIT      0.521       0.51    0.533
 3  0.64  0.62  0.49  0.15   0.5   0    0.53 MIT      0.521       0.51    0.533
 4  0.58  0.44  0.57  0.13   0.5   0    0.54 NUC      0.452       0.45    0.456
 5  0.42  0.44  0.48  0.54   0.5   0    0.48 MIT      0.521       0.51    0.533
 6  0.51  0.4   0.56  0.17   0.5   0.5  0.49 CYT      0.481       0.48    0.470
 7  0.5   0.54  0.48  0.65   0.5   0    0.53 MIT      0.521       0.51    0.533
 8  0.48  0.45  0.59  0.2    0.5   0    0.58 NUC      0.452       0.45    0.456
 9  0.55  0.5   0.66  0.36   0.5   0    0.49 MIT      0.521       0.51    0.533
10  0.4   0.39  0.6   0.15   0.5   0    0.58 CYT      0.481       0.48    0.470
# ℹ 1,474 more rows
# ℹ 11 more variables: gvh_median <dbl>, alm_mean <dbl>, alm_median <dbl>,
#   mit_mean <dbl>, mit_median <dbl>, erl_mean <dbl>, erl_median <dbl>,
#   pox_mean <dbl>, pox_median <dbl>, vac_mean <dbl>, vac_median <dbl>

Task 3: Combining Excel and Delimited Data

library(readxl)
whitewinedata <- read_excel("white-wine.xlsx", sheet = NULL)
whitewinedata

# A tibble: 4,898 × 12
   `fixed acidity` `volatile acidity` `citric acid` `residual sugar` chlorides
             <dbl>              <dbl>         <dbl>            <dbl>     <dbl>
 1               7               0.27          0.36             20.7     0.045
 2              63               0.3           0.34              1.6     0.049
 3              81               0.28          0.4               6.9     0.05 
 4              72               0.23          0.32              8.5     0.058
 5              72               0.23          0.32              8.5     0.058
 6              81               0.28          0.4               6.9     0.05 
 7              62               0.32          0.16              7       0.045
 8               7               0.27          0.36             20.7     0.045
 9              63               0.3           0.34              1.6     0.049
10              81               0.22          0.43              1.5     0.044
# ℹ 4,888 more rows
# ℹ 7 more variables: `free sulfur dioxide` <dbl>,
#   `total sulfur dioxide` <dbl>, density <dbl>, pH <dbl>, sulphates <dbl>,
#   alcohol <dbl>, quality <dbl>
…
colnames(whitewinedata) <- c("fixed_acidity", "volatile_acidity", "citric_acid", "residual_sugar", "chlorides", "free_sulfur_dioxide", "total_sulfur_dioxide", "density", "pH", "sulphates", "alcohol", "quality")
whitewinedata

# A tibble: 4,898 × 12
   fixed_acidity volatile_acidity citric_acid residual_sugar chlorides
           <dbl>            <dbl>       <dbl>          <dbl>     <dbl>
 1             7             0.27        0.36           20.7     0.045
 2            63             0.3         0.34            1.6     0.049
 3            81             0.28        0.4             6.9     0.05 
 4            72             0.23        0.32            8.5     0.058
 5            72             0.23        0.32            8.5     0.058
 6            81             0.28        0.4             6.9     0.05 
 7            62             0.32        0.16            7       0.045
 8             7             0.27        0.36           20.7     0.045
 9            63             0.3         0.34            1.6     0.049
10            81             0.22        0.43            1.5     0.044
# ℹ 4,888 more rows
# ℹ 7 more variables: free_sulfur_dioxide <dbl>, total_sulfur_dioxide <dbl>,
#   density <dbl>, pH <dbl>, sulphates <dbl>, alcohol <dbl>, quality <dbl>

3. Added a column for type of wine with a value of “white” for every observation

whitewinedata <- whitewinedata|>
  mutate(type_of_wine = "white")
whitewinedata

# A tibble: 4,898 × 13
   fixed_acidity volatile_acidity citric_acid residual_sugar chlorides
           <dbl>            <dbl>       <dbl>          <dbl>     <dbl>
 1             7             0.27        0.36           20.7     0.045
 2            63             0.3         0.34            1.6     0.049
 3            81             0.28        0.4             6.9     0.05 
 4            72             0.23        0.32            8.5     0.058
 5            72             0.23        0.32            8.5     0.058
 6            81             0.28        0.4             6.9     0.05 
 7            62             0.32        0.16            7       0.045
 8             7             0.27        0.36           20.7     0.045
 9            63             0.3         0.34            1.6     0.049
10            81             0.22        0.43            1.5     0.044
# ℹ 4,888 more rows
# ℹ 8 more variables: free_sulfur_dioxide <dbl>, total_sulfur_dioxide <dbl>,
#   density <dbl>, pH <dbl>, sulphates <dbl>, alcohol <dbl>, quality <dbl>,
#   type_of_wine <chr>

4. Read in red wine data set using readr, replaced variable names, and append a column denoting the type as “red”

redwinedata <- read_csv2("https://www4.stat.ncsu.edu/~online/datasets/red-wine.csv")
redwinedata

# A tibble: 1,599 × 12
   `fixed acidity` `volatile acidity` `citric acid` `residual sugar` chlorides
             <dbl> <chr>              <chr>                    <dbl> <chr>    
 1              74 0.7                0                           19 0.076    
 2              78 0.88               0                           26 0.098    
 3              78 0.76               0.04                        23 0.092    
 4             112 0.28               0.56                        19 0.075    
 5              74 0.7                0                           19 0.076    
 6              74 0.66               0                           18 0.075    
 7              79 0.6                0.06                        16 0.069    
 8              73 0.65               0                           12 0.065    
 9              78 0.58               0.02                         2 0.073    
10              75 0.5                0.36                        61 0.071    
# ℹ 1,589 more rows
# ℹ 7 more variables: `free sulfur dioxide` <dbl>,
#   `total sulfur dioxide` <dbl>, density <chr>, pH <dbl>, sulphates <chr>,
#   alcohol <dbl>, quality <dbl>

colnames(redwinedata) <- c("fixed_acidity", "volatile_acidity", "citric_acid", "residual_sugar", "chlorides", "free_sulfur_dioxide", "total_sulfur_dioxide", "density", "pH", "sulphates", "alcohol", "quality")
redwinedata

# A tibble: 1,599 × 12
   fixed_acidity volatile_acidity citric_acid residual_sugar chlorides
           <dbl> <chr>            <chr>                <dbl> <chr>    
 1            74 0.7              0                       19 0.076    
 2            78 0.88             0                       26 0.098    
 3            78 0.76             0.04                    23 0.092    
 4           112 0.28             0.56                    19 0.075    
 5            74 0.7              0                       19 0.076    
 6            74 0.66             0                       18 0.075    
 7            79 0.6              0.06                    16 0.069    
 8            73 0.65             0                       12 0.065    
 9            78 0.58             0.02                     2 0.073    
10            75 0.5              0.36                    61 0.071    
# ℹ 1,589 more rows
# ℹ 7 more variables: free_sulfur_dioxide <dbl>, total_sulfur_dioxide <dbl>,
#   density <chr>, pH <dbl>, sulphates <chr>, alcohol <dbl>, quality <dbl>

redwinedata <- redwinedata|>
  mutate(type_of_wine = "red",
         volatile_acidity = as.numeric(volatile_acidity),
         citric_acid = as.numeric(citric_acid),
         residual_sugar = as.numeric(residual_sugar),
         chlorides = as.numeric(chlorides),
         density = as.numeric(density),
         sulphates = as.numeric(sulphates)
         ) #mutated variables from characters to numerics in order to combine list - wasn't able to properly copy over the columns like whitewhitedata
redwinedata

# A tibble: 1,599 × 13
   fixed_acidity volatile_acidity citric_acid residual_sugar chlorides
           <dbl>            <dbl>       <dbl>          <dbl>     <dbl>
 1            74             0.7         0                19     0.076
 2            78             0.88        0                26     0.098
 3            78             0.76        0.04             23     0.092
 4           112             0.28        0.56             19     0.075
 5            74             0.7         0                19     0.076
 6            74             0.66        0                18     0.075
 7            79             0.6         0.06             16     0.069
 8            73             0.65        0                12     0.065
 9            78             0.58        0.02              2     0.073
10            75             0.5         0.36             61     0.071
# ℹ 1,589 more rows
# ℹ 8 more variables: free_sulfur_dioxide <dbl>, total_sulfur_dioxide <dbl>,
#   density <dbl>, pH <dbl>, sulphates <dbl>, alcohol <dbl>, quality <dbl>,
#   type_of_wine <chr>

5. Combined both data sets into one data set.

combinedlist <- bind_rows(list(whitewinedata, redwinedata), .id = "id")
combinedlist

# A tibble: 6,497 × 14
   id    fixed_acidity volatile_acidity citric_acid residual_sugar chlorides
   <chr>         <dbl>            <dbl>       <dbl>          <dbl>     <dbl>
 1 1                 7             0.27        0.36           20.7     0.045
 2 1                63             0.3         0.34            1.6     0.049
 3 1                81             0.28        0.4             6.9     0.05 
 4 1                72             0.23        0.32            8.5     0.058
 5 1                72             0.23        0.32            8.5     0.058
 6 1                81             0.28        0.4             6.9     0.05 
 7 1                62             0.32        0.16            7       0.045
 8 1                 7             0.27        0.36           20.7     0.045
 9 1                63             0.3         0.34            1.6     0.049
10 1                81             0.22        0.43            1.5     0.044
# ℹ 6,487 more rows
# ℹ 8 more variables: free_sulfur_dioxide <dbl>, total_sulfur_dioxide <dbl>,
#   density <dbl>, pH <dbl>, sulphates <dbl>, alcohol <dbl>, quality <dbl>,
#   type_of_wine <chr>
…
